
Start-Date: 2023-12-25  05:26:55
Commandline: apt remove dkms
Remove: rtl8821cu-dkms:amd64 (5.12.0+git20230215-1~mx23+3), rtl8812au-dkms:amd64 (5.13.6+git20230615-1~mx23), broadcom-sta-dkms:amd64 (6.30.223.271-23), rtl8821ce-dkms:amd64 (5.5.2.1+git20230504-0~mx23+1), dkms:amd64 (3.0.10-8+deb12u1)
End-Date: 2023-12-25  05:27:20

Start-Date: 2023-12-25  05:28:04
Commandline: apt upgrade
Install: linux-headers-6.1.0-16-amd64:amd64 (6.1.67-1, automatic), cpp:amd64 (4:12.2.0-3, automatic), gcc:amd64 (4:12.2.0-3, automatic), linux-image-6.1.0-16-amd64:amd64 (6.1.67-1, automatic), linux-headers-6.1.0-16-common:amd64 (6.1.67-1, automatic)
Upgrade: libperl5.36:amd64 (5.36.0-7, 5.36.0-7+deb12u1), iso-snapshot-cli:amd64 (23.7.02, 23.12.02), libpam-runtime:amd64 (1.5.2-6, 1.5.2-6+deb12u1), libgssapi-krb5-2:amd64 (1.20.1-2, 1.20.1-2+deb12u1), openssh-client:amd64 (1:9.2p1-2, 1:9.2p1-2+deb12u2), dbus-user-session:amd64 (1.14.8-2~deb12u1, 1.14.10-1~deb12u1), libnftables1:amd64 (1.0.6-2+deb12u1, 1.0.6-2+deb12u2), perl:amd64 (5.36.0-7, 5.36.0-7+deb12u1), tzdata:amd64 (2023c-5, 2023c-5+deb12u1), grub-pc-bin:amd64 (2.06-13, 2.06-13+deb12u1), dbus-daemon:amd64 (1.14.8-2~deb12u1, 1.14.10-1~deb12u1), linux-compiler-gcc-12-x86:amd64 (6.1.38-2, 6.1.67-1), debianutils:amd64 (5.7-0.4, 5.7-0.5~deb12u1), linux-headers-amd64:amd64 (6.1.38-2, 6.1.67-1), libdbus-1-3:amd64 (1.14.8-2~deb12u1, 1.14.10-1~deb12u1), dbus-bin:amd64 (1.14.8-2~deb12u1, 1.14.10-1~deb12u1), libkrb5support0:amd64 (1.20.1-2, 1.20.1-2+deb12u1), linux-kbuild-6.1:amd64 (6.1.38-2, 6.1.67-1), debian-archive-keyring:amd64 (2023.3, 2023.3+deb12u1), libc6:amd64 (2.36-9+deb12u1, 2.36-9+deb12u3), libc6:i386 (2.36-9+deb12u1, 2.36-9+deb12u3), locales:amd64 (2.36-9+deb12u1, 2.36-9+deb12u3), libssl3:amd64 (3.0.9-1, 3.0.11-1~deb12u2), libkrb5-3:amd64 (1.20.1-2, 1.20.1-2+deb12u1), libpam-modules:amd64 (1.5.2-6, 1.5.2-6+deb12u1), linux-image-amd64:amd64 (6.1.38-2, 6.1.67-1), base-files:amd64 (12.4+deb12u1, 12.4+deb12u4), libk5crypto3:amd64 (1.20.1-2, 1.20.1-2+deb12u1), dbus-session-bus-common:amd64 (1.14.8-2~deb12u1, 1.14.10-1~deb12u1), libpam-modules-bin:amd64 (1.5.2-6, 1.5.2-6+deb12u1), grub-efi-amd64-bin:amd64 (2.06-13, 2.06-13+deb12u1), grub2-common:amd64 (2.06-13, 2.06-13+deb12u1), mx-remaster:amd64 (23.05.01, 23.10.01mx23), libc-dev-bin:amd64 (2.36-9+deb12u1, 2.36-9+deb12u3), localize-repo-mx:amd64 (22.09.01, 23.11.01), perl-base:amd64 (5.36.0-7, 5.36.0-7+deb12u1), libpam0g:amd64 (1.5.2-6, 1.5.2-6+deb12u1), libc-l10n:amd64 (2.36-9+deb12u1, 2.36-9+deb12u3), grub-common:amd64 (2.06-13, 2.06-13+deb12u1), libc-bin:amd64 (2.36-9+deb12u1, 2.36-9+deb12u3), ddm-mx:amd64 (23.07.02, 23.12.01), libc6-dev:amd64 (2.36-9+deb12u1, 2.36-9+deb12u3), grub-efi-ia32-bin:amd64 (2.06-13, 2.06-13+deb12u1), mx-system:amd64 (23.07.09mx23, 23.10.02mx23), libgnutls30:amd64 (3.7.9-2, 3.7.9-2+deb12u1), amd64-microcode:amd64 (3.20230719.1~deb12u1, 3.20230808.1.1~deb12u1), firmware-ath9k-htc:amd64 (1.4.0-108-gd856466+dfsg1-1.3, 1.4.0-108-gd856466+dfsg1-1.3+deb12u1), perl-modules-5.36:amd64 (5.36.0-7, 5.36.0-7+deb12u1), dbus-system-bus-common:amd64 (1.14.8-2~deb12u1, 1.14.10-1~deb12u1), dbus:amd64 (1.14.8-2~deb12u1, 1.14.10-1~deb12u1), grub-pc:amd64 (2.06-13, 2.06-13+deb12u1), mx-gpg-keys:amd64 (22.11.11, 23.09.04), intel-microcode:amd64 (3.20230512.1, 3.20231114.1~deb12u1), openssl:amd64 (3.0.9-1, 3.0.11-1~deb12u2), nftables:amd64 (1.0.6-2+deb12u1, 1.0.6-2+deb12u2), linux-libc-dev:amd64 (6.1.38-2, 6.1.67-1)
End-Date: 2023-12-25  05:29:33

Start-Date: 2023-12-25  05:29:55
Commandline: apt install xorg
Install: xserver-xorg-video-nouveau:amd64 (1:1.0.17-2, automatic), libxcb-present0:amd64 (1.15-1, automatic), libxxf86vm1:amd64 (1:1.1.4-1+b2, automatic), libwacom9:amd64 (2.6.0-1, automatic), libglx-mesa0:amd64 (22.3.6-1+deb12u1, automatic), libwacom-common:amd64 (2.6.0-1, automatic), xkb-data:amd64 (2.35.1-1, automatic), libxrender1:amd64 (1:0.9.10-1.1, automatic), libglvnd0:amd64 (1.6.0-1, automatic), xserver-xorg-video-amdgpu:amd64 (23.0.0-1, automatic), libx11-xcb1:amd64 (2:1.8.4-2+deb12u2, automatic), libxshmfence1:amd64 (1.3-1, automatic), libunwind8:amd64 (1.6.2-3, automatic), xserver-xorg-core:amd64 (2:21.1.7-3+deb12u4, automatic), libxkbfile1:amd64 (1:1.1.0-1, automatic), libxcb-dri2-0:amd64 (1.15-1, automatic), libxcb-dri3-0:amd64 (1.15-1, automatic), libgbm1:amd64 (22.3.6-1+deb12u1, automatic), libpciaccess0:amd64 (0.17-2, automatic), libxcursor1:amd64 (1:1.2.1-1, automatic), xfonts-75dpi:amd64 (1:1.0.5, automatic), libxmuu1:amd64 (2:1.1.3-3, automatic), x11-common:amd64 (1:7.7+23, automatic), libwayland-server0:amd64 (1.21.0-1, automatic), libglx0:amd64 (1.6.0-1, automatic), xserver-xorg-input-all:amd64 (1:7.7+23, automatic), libdrm-nouveau2:amd64 (2.4.114-1+b1, automatic), libinput10:amd64 (1.22.1-1, automatic), libpixman-1-0:amd64 (0.42.2-1, automatic), libmtdev1:amd64 (1.1.6-1, automatic), libxau6:amd64 (1:1.0.9-1, automatic), libxaw7:amd64 (2:1.0.14-1, automatic), libpipeline1:amd64 (1.5.7-1, automatic), libxcb1:amd64 (1.15-1, automatic), libllvm15:amd64 (1:15.0.6-4+b1, automatic), libxcomposite1:amd64 (1:0.4.5-1, automatic), libxft2:amd64 (2.3.6-1, automatic), x11-utils:amd64 (7.7+5, automatic), xserver-xorg:amd64 (1:7.7+23, automatic), libxatracker2:amd64 (22.3.6-1+deb12u1, automatic), xserver-xorg-video-vesa:amd64 (1:2.5.0-1+b1, automatic), libxmu6:amd64 (2:1.1.3-3, automatic), libxpm4:amd64 (1:3.5.12-1.1+deb12u1, automatic), libfontconfig1:amd64 (2.14.1-4, automatic), libz3-4:amd64 (4.8.12-3.1, automatic), libxcvt0:amd64 (0.1.2-1, automatic), libgl1-mesa-dri:amd64 (22.3.6-1+deb12u1, automatic), libxrandr2:amd64 (2:1.5.2-2+b1, automatic), libxxf86dga1:amd64 (2:1.1.5-1, automatic), libxfont2:amd64 (1:2.0.6-1, automatic), libfontenc1:amd64 (1:1.1.4-1, automatic), fontconfig-config:amd64 (2.14.1-4, automatic), xbitmaps:amd64 (1.1.1-2.2, automatic), libdrm-common:amd64 (2.4.114-1, automatic), libx11-data:amd64 (2:1.8.4-2+deb12u2, automatic), libuchardet0:amd64 (0.0.7-1, automatic), libxtst6:amd64 (2:1.2.3-1.1, automatic), xauth:amd64 (1:1.1.2-1, automatic), xserver-common:amd64 (2:21.1.7-3+deb12u4, automatic), man-db:amd64 (2.11.2-2, automatic), xserver-xorg-video-radeon:amd64 (1:19.1.0-3, automatic), x11-session-utils:amd64 (7.7+5, automatic), xserver-xorg-video-vmware:amd64 (1:13.3.0-3.1+b1, automatic), libice6:amd64 (2:1.0.10-1, automatic), xfonts-encodings:amd64 (1:1.0.4-2.2, automatic), xfonts-100dpi:amd64 (1:1.0.5, automatic), xserver-xorg-input-libinput:amd64 (1.2.1-1+b1, automatic), libopengl0:amd64 (1.6.0-1, automatic), xorg:amd64 (1:7.7+23), x11-xkb-utils:amd64 (7.7+7, automatic), libglu1-mesa:amd64 (9.0.2-1.1, automatic), libxcb-glx0:amd64 (1.15-1, automatic), libxinerama1:amd64 (2:1.1.4-3, automatic), libxcb-shape0:amd64 (1.15-1, automatic), libglapi-mesa:amd64 (22.3.6-1+deb12u1, automatic), x11-apps:amd64 (7.7+9, automatic), x11-xserver-utils:amd64 (7.7+9+b1, automatic), xfonts-utils:amd64 (1:7.7+6, automatic), libdrm-amdgpu1:amd64 (2.4.114-1+b1, automatic), libdrm-radeon1:amd64 (2.4.114-1+b1, automatic), libdrm2:amd64 (2.4.114-1+b1, automatic), libxcb-randr0:amd64 (1.15-1, automatic), libxcb-damage0:amd64 (1.15-1, automatic), keyboard-configuration:amd64 (1.221, automatic), libxext6:amd64 (2:1.3.4-1+b1, automatic), xfonts-base:amd64 (1:1.0.5+nmu1, automatic), xorg-docs-core:amd64 (1:1.7.1-1.2, automatic), libegl-mesa0:amd64 (22.3.6-1+deb12u1, automatic), xfonts-scalable:amd64 (1:1.0.3-1.3, automatic), libxcb-shm0:amd64 (1.15-1, automatic), libgl1:amd64 (1.6.0-1, automatic), libegl1:amd64 (1.6.0-1, automatic), libx11-6:amd64 (2:1.8.4-2+deb12u2, automatic), xserver-xorg-video-all:amd64 (1:7.7+23, automatic), xserver-xorg-video-ati:amd64 (1:19.1.0-3, automatic), libwayland-client0:amd64 (1.21.0-1, automatic), xterm:amd64 (379-1, automatic), groff-base:amd64 (1.22.4-10, automatic), libepoxy0:amd64 (1.5.10-1, automatic), libxcb-sync1:amd64 (1.15-1, automatic), xserver-xorg-video-fbdev:amd64 (1:0.5.0-2, automatic), xinit:amd64 (1.4.0-1, automatic), libsm6:amd64 (2:1.2.3-1, automatic), libdrm-intel1:amd64 (2.4.114-1+b1, automatic), libxfixes3:amd64 (1:6.0.0-2, automatic), libxdmcp6:amd64 (1:1.1.2-3, automatic), libxi6:amd64 (2:1.8-1+b1, automatic), libxt6:amd64 (1:1.2.1-1.1, automatic), libxv1:amd64 (2:1.0.11-1.1, automatic), libutempter0:amd64 (1.2.1-3, automatic), libinput-bin:amd64 (1.22.1-1, automatic), libxcb-xfixes0:amd64 (1.15-1, automatic), libevdev2:amd64 (1.13.0+dfsg-1, automatic)
End-Date: 2023-12-25  05:30:15

Start-Date: 2023-12-25  05:30:29
Commandline: apt install dbus-x11
Install: dbus-x11:amd64 (1.14.10-1~deb12u1)
End-Date: 2023-12-25  05:30:29

Start-Date: 2023-12-25  05:31:24
Commandline: apt install budgie-desktop nemo
Install: fontconfig:amd64 (2.14.1-4, automatic), libvulkan1:amd64 (1.3.239.0-1, automatic), libcogl-path20:amd64 (1.22.8-3+b1, automatic), libssh2-1:amd64 (1.10.0-3+b1, automatic), geocode-glib-common:amd64 (3.26.3-6, automatic), libcups2:amd64 (2.4.2-3+deb12u5, automatic), libcanberra-gtk3-0:amd64 (0.30-10, automatic), libyajl2:amd64 (2.1.0-3+deb12u2, automatic), libcurl4:amd64 (7.88.1-10+deb12u5, automatic), libxapp1:amd64 (2.4.2-3, automatic), libzxing2:amd64 (1.4.0-3+b1, automatic), libieee1284-3:amd64 (0.2.11-14, automatic), libpulse0:amd64 (16.1+dfsg1-2+b1, automatic), libwebpmux3:amd64 (1.2.4-0.2+deb12u1, automatic), libopenal-data:amd64 (1:1.19.1-2, automatic), libimath-3-1-29:amd64 (3.1.6-1, automatic), libltc11:amd64 (1.3.2-1, automatic), libserd-0-0:amd64 (0.30.16-1, automatic), libvpx7:amd64 (1.12.0-1+deb12u2, automatic), budgie-control-center-data:amd64 (1.2.0-1, automatic), libbudgie-raven-plugin0:amd64 (10.7.1-1, automatic), libcodec2-1.0:amd64 (1.0.5-1, automatic), libsecret-1-0:amd64 (0.20.5-3, automatic), libltdl7:amd64 (2.4.7-5, automatic), libgsf-1-114:amd64 (1.14.50-1, automatic), budgie-desktop:amd64 (10.7.1-1), libmm-glib0:amd64 (1.20.4-1, automatic), libxcb-util1:amd64 (0.4.0-1+b1, automatic), python3-gi:amd64 (3.42.2-3+b1, automatic), libsnmp-base:amd64 (5.9.3+dfsg-2, automatic), xapps-common:amd64 (2.4.2-3, automatic), libnghttp2-14:amd64 (1.52.0-1+deb12u1, automatic), libcurl3-gnutls:amd64 (7.88.1-10+deb12u5, automatic), gnome-bluetooth-common:amd64 (3.34.5-10, automatic), libxres1:amd64 (2:1.2.1-1, automatic), libtwolame0:amd64 (0.4.0-2, automatic), libzvbi-common:amd64 (0.2.41-1, automatic), libgcr-base-3-1:amd64 (3.41.1-1+b1, automatic), libxklavier16:amd64 (5.4-4, automatic), libjack-jackd2-0:amd64 (1.9.21~dfsg-3, automatic), libfreeaptx0:amd64 (0.1.1-2, automatic), libcinnamon-desktop4:amd64 (5.6.1-1, automatic), acl:amd64 (2.3.1-3, automatic), apg:amd64 (2.2.3.dfsg.1-5+b2, automatic), bubblewrap:amd64 (0.8.0-2, automatic), libbudgietheme0:amd64 (10.7.1-1, automatic), libsnmp40:amd64 (5.9.3+dfsg-2, automatic), libproxy1v5:amd64 (0.4.18-1.2, automatic), libraptor2-0:amd64 (2.0.15-4, automatic), nemo-data:amd64 (5.6.4-1, automatic), hicolor-icon-theme:amd64 (0.17-2, automatic), libgweather-4-common:amd64 (4.2.0-2, automatic), polkitd:amd64 (122-3, automatic), libgoa-1.0-common:amd64 (3.46.0-1, automatic), libfluidsynth3:amd64 (2.3.1-2, automatic), libdecor-0-0:amd64 (0.1.1-2, automatic), libldb2:amd64 (2:2.6.2+samba4.17.12+dfsg-0+deb12u1, automatic), libpango-1.0-0:amd64 (1.50.12+ds-1, automatic), libtevent0:amd64 (0.14.1-1, automatic), libvo-aacenc0:amd64 (0.1.3-2, automatic), libwpebackend-fdo-1.0-1:amd64 (1.14.2-1, automatic), libgusb2:amd64 (0.3.10-1, automatic), libwavpack1:amd64 (5.6.0-1, automatic), libflac12:amd64 (1.4.2+ds-2, automatic), libsrt1.5-gnutls:amd64 (1.5.1-1, automatic), libmpg123-0:amd64 (1.31.2-1, automatic), libgeocode-glib-2-0:amd64 (3.26.3-6, automatic), libpipewire-0.3-common:amd64 (1.0.0-1~mx23+1, automatic), libayatana-appindicator3-1:amd64 (0.5.92-1, automatic), sgml-base:amd64 (1.31, automatic), pipewire-pulse:amd64 (1.0.0-1~mx23+1, automatic), libpwquality-common:amd64 (1.4.5-1, automatic), libbudgie-appindexer0:amd64 (10.7.1-1, automatic), libwayland-cursor0:amd64 (1.21.0-1, automatic), libx264-164:amd64 (2:0.164.3095+gitbaee400-3, automatic), libshine3:amd64 (3.1.1-2, automatic), libzbar0:amd64 (0.23.92-7, automatic), libpeas-common:amd64 (1.34.0-1, automatic), libaom3:amd64 (3.6.0-1, automatic), libavahi-common-data:amd64 (0.8-10, automatic), libheif1:amd64 (1.15.1-1, automatic), libcolord2:amd64 (1.4.6-2.2, automatic), gir1.2-glib-2.0:amd64 (1.74.0-3, automatic), libcrack2:amd64 (2.9.6-5+b1, automatic), libx265-199:amd64 (3.5-2+b1, automatic), libmpeg2encpp-2.1-0:amd64 (1:2.1.0+debian-7, automatic), libass9:amd64 (1:0.17.1-1, automatic), libsasl2-2:amd64 (2.1.28+dfsg-10, automatic), libcairo2:amd64 (1.16.0-7, automatic), libconfig++9v5:amd64 (1.5-0.4, automatic), gstreamer1.0-clutter-3.0:amd64 (3.0.27-3, automatic), libbluray2:amd64 (1:1.3.4-1, automatic), libvorbisfile3:amd64 (1.3.7-1, automatic), libgtop-2.0-11:amd64 (2.40.0-2, automatic), libspandsp2:amd64 (0.0.6+dfsg-2+b1, automatic), libraven0:amd64 (10.7.1-1, automatic), at-spi2-core:amd64 (2.46.0-5, automatic), libdeflate0:amd64 (1.14-1, automatic), libcogl20:amd64 (1.22.8-3+b1, automatic), libqrencode4:amd64 (4.1.1-1, automatic), libatk-bridge2.0-0:amd64 (2.46.0-5, automatic), libiec61883-0:amd64 (1.2.0-6+b1, automatic), libmutter-11-0:amd64 (43.8-0+deb12u1, automatic), libbs2b0:amd64 (3.1.0+dfsg-7, automatic), libcolorhug2:amd64 (1.4.6-2.2, automatic), gnome-session-bin:amd64 (43.0-1+deb12u1, automatic), libgme0:amd64 (0.6.3-6, automatic), libdav1d6:amd64 (1.0.0-2, automatic), libcaca0:amd64 (0.99.beta20-3, automatic), libraw1394-11:amd64 (2.1.2-2, automatic), librtmp1:amd64 (2.4+20151223.gitfa8646d.1-2+b2, automatic), colord:amd64 (1.4.6-2.2, automatic), libmanette-0.2-0:amd64 (0.2.6-3+b1, automatic), liblua5.4-0:amd64 (5.4.4-3, automatic), budgie-control-center:amd64 (1.2.0-1, automatic), adwaita-icon-theme:amd64 (43-1, automatic), libgoa-1.0-0b:amd64 (3.46.0-1, automatic), libwebpdemux2:amd64 (1.2.4-0.2+deb12u1, automatic), libjavascriptcoregtk-4.1-0:amd64 (2.42.4-1~deb12u1, automatic), libtiff6:amd64 (4.5.0-6+deb12u1, automatic), libmplex2-2.1-0:amd64 (1:2.1.0+debian-7, automatic), libtag1v5:amd64 (1.13-2, automatic), libva-x11-2:amd64 (2.17.0-1, automatic), libgsm1:amd64 (1.0.22-1, automatic), libgupnp-1.6-0:amd64 (1.6.3-1, automatic), libshout3:amd64 (2.4.6-1+b1, automatic), emacsen-common:amd64 (3.0.5, automatic), libgsound0:amd64 (1.0.3-2, automatic), libclutter-gtk-1.0-0:amd64 (1.8.4-4+b1, automatic), libgstreamer-gl1.0-0:amd64 (1.22.0-3+deb12u1, automatic), libwbclient0:amd64 (2:4.17.12+dfsg-0+deb12u1, automatic), libxdo3:amd64 (1:3.20160805.1-5, automatic), libmfx1:amd64 (22.5.4-1, automatic), libmpcdec6:amd64 (2:0.1~r495-2, automatic), libnuma1:amd64 (2.0.16-1, automatic), libsvtav1enc1:amd64 (1.4.1+dfsg-1, automatic), pipewire:amd64 (1.0.0-1~mx23+1, automatic), libxdamage1:amd64 (1:1.1.6-1, automatic), libgupnp-igd-1.0-4:amd64 (1.2.0-3, automatic), libgdk-pixbuf-2.0-0:amd64 (2.42.10+dfsg-1+b1, automatic), libsasl2-modules-db:amd64 (2.1.28+dfsg-10, automatic), libcheese-gtk25:amd64 (43.0-1, automatic), libgoa-backend-1.0-1:amd64 (3.46.0-1, automatic), libfaad2:amd64 (2.10.1-1, automatic), timgm6mb-soundfont:amd64 (1.3-5, automatic), libcairo-gobject2:amd64 (1.16.0-7, automatic), libsmbclient:amd64 (2:4.17.12+dfsg-0+deb12u1, automatic), liblerc4:amd64 (4.0.0+ds-2, automatic), gvfs-common:amd64 (1.50.3-1, automatic), gvfs-libs:amd64 (1.50.3-1, automatic), mutter-common:amd64 (43.8-0+deb12u1, automatic), network-manager-gnome:amd64 (1.30.0-2, automatic), libgraphite2-3:amd64 (1.3.14-1, automatic), gnome-screensaver:amd64 (3.6.1-13+b2, automatic), libgee-0.8-2:amd64 (0.20.6-1, automatic), libnma-common:amd64 (1.10.6-1, automatic), libhunspell-1.7-0:amd64 (1.7.1-1, automatic), libvdpau1:amd64 (1.5-2, automatic), libasound2:amd64 (1.2.8-1+b1, automatic), libsbc1:amd64 (2.0-1, automatic), libldap-2.5-0:amd64 (2.5.13+dfsg-5, automatic), libmodplug1:amd64 (1:0.8.9.0-3, automatic), libgav1-1:amd64 (0.18.0-1+b1, automatic), budgie-core:amd64 (10.7.1-1, automatic), libopenexr-3-1-30:amd64 (3.1.5-5, automatic), libexempi8:amd64 (2.6.3-1, automatic), libopenh264-7:amd64 (2.3.1+dfsg-3, automatic), libxss1:amd64 (1:1.2.3-1, automatic), glib-networking-common:amd64 (2.74.0-4, automatic), libgles2:amd64 (1.6.0-1, automatic), gnome-settings-daemon-common:amd64 (43.0-4, automatic), desktop-file-utils:amd64 (0.26-1, automatic), libjxl0.7:amd64 (0.7.0-10, automatic), libmp3lame0:amd64 (3.100-6, automatic), libsoxr0:amd64 (0.1.3-4, automatic), libsoup-3.0-0:amd64 (3.2.2-2, automatic), libgirepository-1.0-1:amd64 (1.74.0-3, automatic), libavc1394-0:amd64 (0.5.4-5, automatic), libudfread0:amd64 (1.1.2-1, automatic), libdirectfb-1.7-7:amd64 (1.7.7-11, automatic), libjson-glib-1.0-common:amd64 (1.6.6-1, automatic), libpulse-mainloop-glib0:amd64 (16.1+dfsg1-2+b1, automatic), libwoff1:amd64 (1.0.2-2, automatic), libaspell15:amd64 (0.60.8-4+b1, automatic), libpwquality1:amd64 (1.4.5-1+b1, automatic), libsnappy1v5:amd64 (1.1.9-3, automatic), libsndio7.0:amd64 (1.9.0-0.3+b2, automatic), libopus0:amd64 (1.3.1-3, automatic), libpangocairo-1.0-0:amd64 (1.50.12+ds-1, automatic), libndp0:amd64 (1.8-1, automatic), libxkbcommon0:amd64 (1.5.0-1, automatic), gstreamer1.0-x:amd64 (1.22.0-3+deb12u1, automatic), libwnck-3-common:amd64 (43.0-3, automatic), glib-networking-services:amd64 (2.74.0-4, automatic), libmysofa1:amd64 (1.3.1~dfsg0-1, automatic), libhwy1:amd64 (1.0.3-3+deb12u1, automatic), libgphoto2-port12:amd64 (2.5.30-1, automatic), libatk1.0-0:amd64 (2.46.0-5, automatic), libmjpegutils-2.1-0:amd64 (1:2.1.0+debian-7, automatic), dconf-cli:amd64 (0.40.0-4, automatic), libpython3.11:amd64 (3.11.2-6, automatic), gnome-settings-daemon:amd64 (43.0-4, automatic), libavcodec59:amd64 (7:5.1.4-0+deb12u1, automatic), libpoppler-glib8:amd64 (22.12.0-2+b1, automatic), libgstreamer-plugins-bad1.0-0:amd64 (1.22.0-4+deb12u4, automatic), libharfbuzz-icu0:amd64 (6.0.0+dfsg-3, automatic), libxcb-render0:amd64 (1.15-1, automatic), libspa-0.2-bluetooth:amd64 (1.0.0-1~mx23+1, automatic), xwayland:amd64 (2:22.1.9-1, automatic), libvisual-0.4-0:amd64 (0.4.0-19, automatic), libgssdp-1.6-0:amd64 (1.6.2-2, automatic), libjpeg62-turbo:amd64 (1:2.1.5-2, automatic), hunspell-en-us:amd64 (1:2020.12.07-2, automatic), libwpe-1.0-1:amd64 (1.14.0-1, automatic), dictionaries-common:amd64 (1.29.5, automatic), gsettings-desktop-schemas:amd64 (43.0-1, automatic), libgnomekbd-common:amd64 (3.28.1-1, automatic), libbudgie-private0:amd64 (10.7.1-1, automatic), policykit-1-gnome:amd64 (0.105-8, automatic), libnotify4:amd64 (0.8.1-1, automatic), libnma0:amd64 (1.10.6-1, automatic), gstreamer1.0-plugins-good:amd64 (1.22.0-5+deb12u1, automatic), libwebrtc-audio-processing1:amd64 (0.3-1+b1, automatic), libsane-common:amd64 (1.2.1-2, automatic), libatspi2.0-0:amd64 (2.46.0-5, automatic), libteamdctl0:amd64 (1.31-1, automatic), libopenni2-0:amd64 (2.2.0.33+dfsg-15+b1, automatic), libgnome-desktop-3-20:amd64 (43.2-2, automatic), gstreamer1.0-plugins-base:amd64 (1.22.0-3+deb12u1, automatic), gvfs:amd64 (1.50.3-1, automatic), gvfs-daemons:amd64 (1.50.3-1, automatic), gnome-desktop3-data:amd64 (43.2-2, automatic), libopenal1:amd64 (1:1.19.1-2, automatic), libpoppler126:amd64 (22.12.0-2+b1, automatic), network-manager:amd64 (1.42.4-1, automatic), libvorbisenc2:amd64 (1.3.7-1, automatic), libasyncns0:amd64 (0.8-6+b3, automatic), libnss3:amd64 (2:3.87.1-1, automatic), libpangoft2-1.0-0:amd64 (1.50.12+ds-1, automatic), libtheora0:amd64 (1.1.1+dfsg.1-16.1+b1, automatic), libxvidcore4:amd64 (2:1.3.7-1, automatic), libtdb1:amd64 (1.4.8-2, automatic), zenity-common:amd64 (3.44.0-1, automatic), libyuv0:amd64 (0.0~git20230123.b2528b0-1, automatic), libsndfile1:amd64 (1.2.0-1, automatic), libgweather-4-0:amd64 (4.2.0-2, automatic), libavutil57:amd64 (7:5.1.4-0+deb12u1, automatic), librest-1.0-0:amd64 (0.9.1-6, automatic), zenity:amd64 (3.44.0-1, automatic), libkate1:amd64 (0.4.1-11, automatic), cinnamon-desktop-data:amd64 (5.6.1-1, automatic), libstartup-notification0:amd64 (0.12-6+b1, automatic), libwebp7:amd64 (1.2.4-0.2+deb12u1, automatic), libwildmidi2:amd64 (0.4.3-1, automatic), pipewire-audio:amd64 (1.0.0-1~mx23+1, automatic), pipewire-bin:amd64 (1.0.0-1~mx23+1, automatic), libxslt1.1:amd64 (1.1.35-1, automatic), libbudgie-plugin0:amd64 (10.7.1-1, automatic), liblc3-0:amd64 (1.0.1-1+b1, automatic), libspeex1:amd64 (1.2.1-2, automatic), libasound2-data:amd64 (1.2.8-1, automatic), libwebkit2gtk-4.1-0:amd64 (2.42.4-1~deb12u1, automatic), libxcb-res0:amd64 (1.15-1, automatic), libglibmm-2.4-1v5:amd64 (2.66.5-2, automatic), libgstreamer1.0-0:amd64 (1.22.0-2, automatic), libdca0:amd64 (0.0.7-2, automatic), libavahi-common3:amd64 (0.8-10, automatic), xdotool:amd64 (1:3.20160805.1-5, automatic), libgtop2-common:amd64 (2.40.0-2, automatic), liblrdf0:amd64 (0.6.1-4, automatic), librsvg2-2:amd64 (2.54.7+dfsg-1~deb12u1, automatic), libxml++2.6-2v5:amd64 (2.40.1-3, automatic), libabsl20220623:amd64 (20220623.1-1, automatic), libsamplerate0:amd64 (0.2.2-3, automatic), ocl-icd-libopencl1:amd64 (2.3.1-1, automatic), libldacbt-enc2:amd64 (2.0.2.3+git20200429+ed310a0-4, automatic), libxkbregistry0:amd64 (1.5.0-1, automatic), libv4l-0:amd64 (1.22.1-5+b2, automatic), libbluetooth3:amd64 (5.66-1+deb12u1, automatic), libogg0:amd64 (1.3.5-3, automatic), libavif15:amd64 (0.11.1-1, automatic), libsord-0-0:amd64 (0.16.14+git221008-1, automatic), libwnck-3-0:amd64 (43.0-3, automatic), libjbig0:amd64 (2.1-6.1, automatic), libflite1:amd64 (2.2-5, automatic), libopenjp2-7:amd64 (2.5.0-2, automatic), libwayland-egl1:amd64 (1.21.0-1, automatic), libcdparanoia0:amd64 (3.10.2+debian-14, automatic), libgail-3-0:amd64 (3.24.38-2~deb12u1, automatic), libvorbis0a:amd64 (1.3.7-1, automatic), libsdl2-2.0-0:amd64 (2.26.5+dfsg-1, automatic), libnemo-extension1:amd64 (5.6.4-1, automatic), libayatana-ido3-0.4-0:amd64 (0.9.3-1, automatic), sound-theme-freedesktop:amd64 (0.8-2, automatic), libjson-glib-1.0-0:amd64 (1.6.6-1, automatic), libdbusmenu-glib4:amd64 (18.10.20180917~bzr492+repack1-3, automatic), libspa-0.2-modules:amd64 (1.0.0-1~mx23+1, automatic), libgtk-3-0:amd64 (3.24.38-2~deb12u1, automatic), accountsservice:amd64 (22.08.8-6, automatic), libchromaprint1:amd64 (1.5.1-2+b1, automatic), samba-libs:amd64 (2:4.17.12+dfsg-0+deb12u1, automatic), nemo:amd64 (5.6.4-1), liblmdb0:amd64 (0.9.24-1, automatic), libvo-amrwbenc0:amd64 (0.1.3-2, automatic), libopenmpt0:amd64 (0.6.9-1, automatic), libswresample4:amd64 (7:5.1.4-0+deb12u1, automatic), gtk-update-icon-cache:amd64 (3.24.38-2~deb12u1, automatic), libxcb-xkb1:amd64 (1.15-1, automatic), libsrtp2-1:amd64 (2.5.0-3, automatic), libhyphen0:amd64 (2.8.8-7, automatic), libsoup-3.0-common:amd64 (3.2.2-2, automatic), libgtk-3-common:amd64 (3.24.38-2~deb12u1, automatic), xdg-utils:amd64 (1.1.3-4.1, automatic), libdvdnav4:amd64 (6.1.1-1, automatic), libdc1394-25:amd64 (2.2.6-4, automatic), libpeas-1.0-0:amd64 (1.34.0-1+b1, automatic), libcogl-pango20:amd64 (1.22.8-3+b1, automatic), colord-data:amd64 (1.4.6-2.2, automatic), libnice10:amd64 (0.1.21-1, automatic), libgphoto2-6:amd64 (2.5.30-1, automatic), libv4lconvert0:amd64 (1.22.1-5+b2, automatic), libharfbuzz0b:amd64 (6.0.0+dfsg-3, automatic), libsecret-common:amd64 (0.20.5-3, automatic), libinstpatch-1.0-2:amd64 (1.1.6-1, automatic), libcheese8:amd64 (43.0-1, automatic), libgnome-bluetooth13:amd64 (3.34.5-10, automatic), libsoundtouch1:amd64 (2.3.2+ds1-1, automatic), libdbusmenu-gtk3-4:amd64 (18.10.20180917~bzr492+repack1-3, automatic), libhandy-1-0:amd64 (1.8.1-1, automatic), libaa1:amd64 (1.4p5-50, automatic), liblilv-0-0:amd64 (0.24.14-1, automatic), libzvbi0:amd64 (0.2.41-1, automatic), gstreamer1.0-plugins-bad:amd64 (1.22.0-4+deb12u4, automatic), libduktape207:amd64 (2.7.0-2, automatic), libsane1:amd64 (1.2.1-2, automatic), libenchant-2-2:amd64 (2.3.3-2, automatic), libva-drm2:amd64 (2.17.0-1, automatic), xml-core:amd64 (0.18+nmu1, automatic), libpipewire-0.3-modules:amd64 (1.0.0-1~mx23+1, automatic), libdv4:amd64 (1.0.0-15, automatic), libdw1:amd64 (0.188-2.1, automatic), libgnomekbd8:amd64 (3.28.1-1, automatic), libgd3:amd64 (2.3.3-9, automatic), wireplumber:amd64 (0.4.16-1~mx23+1, automatic), libgstreamer-plugins-base1.0-0:amd64 (1.22.0-3+deb12u1, automatic), libdbus-glib-1-2:amd64 (0.112-3, automatic), libtag1v5-vanilla:amd64 (1.13-2, automatic), libgraphene-1.0-0:amd64 (1.10.8-1, automatic), libldacbt-abr2:amd64 (2.0.2.3+git20200429+ed310a0-4, automatic), libxkbcommon-x11-0:amd64 (1.5.0-1, automatic), xdg-dbus-proxy:amd64 (0.1.4-3, automatic), liblcms2-2:amd64 (2.14-2, automatic), libroc0.3:amd64 (0.3.0+dfsg-2~mx23+1, automatic), libclutter-1.0-0:amd64 (1.26.4+dfsg-4, automatic), cheese-common:amd64 (43.0-1, automatic), libaccountsservice0:amd64 (22.08.8-6, automatic), libnm0:amd64 (1.42.4-1, automatic), libtalloc2:amd64 (2.4.0-f2, automatic), libde265-0:amd64 (1.0.11-1+deb12u1, automatic), libsigc++-2.0-0v5:amd64 (2.12.0-1, automatic), libdvdread8:amd64 (6.1.3-1, automatic), libgeoclue-2-0:amd64 (2.6.0-2, automatic), libgck-1-0:amd64 (3.41.1-1+b1, automatic), at-spi2-common:amd64 (2.46.0-5, automatic), libneon27:amd64 (0.32.5-1, automatic), libspeexdsp1:amd64 (1.2.1-1, automatic), libavahi-client3:amd64 (0.8-10, automatic), libibus-1.0-5:amd64 (1.5.27-5, automatic), glib-networking:amd64 (2.74.0-4, automatic), libclutter-gst-3.0-0:amd64 (3.0.27-3, automatic), libcanberra0:amd64 (0.30-10, automatic), librav1e0:amd64 (0.5.1-6, automatic), libcolord-gtk1:amd64 (0.3.0-3.1, automatic), libuv1:amd64 (1.44.2-1, automatic), libva2:amd64 (2.17.0-1, automatic), libayatana-indicator3-7:amd64 (0.9.3-1, automatic), pipewire-alsa:amd64 (1.0.0-1~mx23+1, automatic), libexif12:amd64 (0.6.24-1+b1, automatic), libncurses6:amd64 (6.4-4, automatic), gnome-session-common:amd64 (43.0-1+deb12u1, automatic), iso-codes:amd64 (4.15.0-1, automatic), liborc-0.4-0:amd64 (1:0.4.33-2, automatic), libffado2:amd64 (2.4.7-1, automatic), libgsf-1-common:amd64 (1.14.50-1, automatic), libwireplumber-0.4-0:amd64 (0.4.16-1~mx23+1, automatic), libpipewire-0.3-0:amd64 (1.0.0-1~mx23+1, automatic), libnspr4:amd64 (2:4.35-1, automatic), libsratom-0-0:amd64 (0.6.14-1, automatic), libgdk-pixbuf2.0-common:amd64 (2.42.10+dfsg-1, automatic)
End-Date: 2023-12-25  05:32:17

Start-Date: 2023-12-25  05:38:42
Commandline: apt remove dpkg-dev g++ gcc libc6-dev make fakeroot open-vm-tools
Remove: gcc:amd64 (4:12.2.0-3), dpkg-dev:amd64 (1.21.22), make:amd64 (4.3-4.1), libc6-dev:amd64 (2.36-9+deb12u3), mx-system:amd64 (23.10.02mx23)
End-Date: 2023-12-25  05:38:43

Start-Date: 2023-12-25  05:39:09
Commandline: apt install budgie-desktop-doc budgie-desktop-view gnome-tweaks nemo-fileroller
Install: gir1.2-notify-0.7:amd64 (0.8.1-1, automatic), gir1.2-freedesktop:amd64 (1.74.0-3, automatic), libarchive13:amd64 (3.6.2-1, automatic), gir1.2-gdkpixbuf-2.0:amd64 (2.42.10+dfsg-1+b1, automatic), gnome-tweaks:amd64 (42~beta-4), gir1.2-gnomedesktop-3.0:amd64 (43.2-2, automatic), nemo-fileroller:amd64 (5.6.1-1), gir1.2-gtk-3.0:amd64 (3.24.38-2~deb12u1, automatic), file-roller:amd64 (43.0-1, automatic), p7zip-full:amd64 (16.02+dfsg-8, automatic), budgie-desktop-view:amd64 (1.2.1-1), gir1.2-handy-1:amd64 (1.8.1-1, automatic), p7zip:amd64 (16.02+dfsg-8, automatic), libnautilus-extension4:amd64 (43.2-1, automatic), gnome-shell-common:amd64 (43.9-0+deb12u1, automatic), gir1.2-atk-1.0:amd64 (2.46.0-5, automatic), gir1.2-pango-1.0:amd64 (1.50.12+ds-1, automatic), libpangoxft-1.0-0:amd64 (1.50.12+ds-1, automatic), gir1.2-harfbuzz-0.0:amd64 (6.0.0+dfsg-3, automatic), gir1.2-gdesktopenums-3.0:amd64 (43.0-1, automatic), budgie-desktop-doc:amd64 (10.7.1-1)
End-Date: 2023-12-25  05:39:11

Start-Date: 2023-12-25  05:39:26
Commandline: apt install avahi-daemon libnss-mdns anacron alsa-utils
Install: libavahi-core7:amd64 (0.8-10, automatic), avahi-daemon:amd64 (0.8-10), libfftw3-single3:amd64 (3.3.10-1, automatic), libatopology2:amd64 (1.2.8-1+b1, automatic), alsa-utils:amd64 (1.2.8-1), libdaemon0:amd64 (0.14-7.1, automatic), libnss-mdns:amd64 (0.15.1-3)
End-Date: 2023-12-25  05:39:29

Start-Date: 2023-12-25  05:42:01
Commandline: apt install anacron avahi-autoipd bluetooth powertop iw wireless-tools wpasupplicant connman cmst
Install: libnetfilter-conntrack3:amd64 (1.0.9-3, automatic), iptables:amd64 (1.8.9-2, automatic), avahi-autoipd:amd64 (0.8-10), libxcb-image0:amd64 (0.4.0-2, automatic), libxcb-icccm4:amd64 (0.4.1-1.1, automatic), bluetooth:amd64 (5.66-1+deb12u1), libqt5network5:amd64 (5.15.8+dfsg-11, automatic), connman:amd64 (1.41-3), libqt5dbus5:amd64 (5.15.8+dfsg-11, automatic), libqt5widgets5:amd64 (5.15.8+dfsg-11, automatic), libqt5gui5:amd64 (5.15.8+dfsg-11, automatic), libnfnetlink0:amd64 (1.0.2-2, automatic), libxcb-keysyms1:amd64 (0.4.0-1+b2, automatic), libip6tc2:amd64 (1.8.9-2, automatic), powertop:amd64 (2.14-1+b2), cmst:amd64 (2022.11.30-1), bluez:amd64 (5.66-1+deb12u1, automatic), libxcb-render-util0:amd64 (0.3.9-1+b1, automatic), libmd4c0:amd64 (0.4.8-1, automatic), libxcb-xinerama0:amd64 (1.15-1, automatic), libxcb-xinput0:amd64 (1.15-1, automatic)
End-Date: 2023-12-25  05:42:06

Start-Date: 2023-12-25  05:45:24
Commandline: apt install desktop-defaults-mx-common mx-tweak
Install: libglib2.0-bin:amd64 (2.74.6-2, automatic), mx-tweak-data:amd64 (21.09.01mx21, automatic), mx-tweak:amd64 (23.12.01mx23), desktop-defaults-mx-common:amd64 (23.04.02mx23)
End-Date: 2023-12-25  05:45:25

Start-Date: 2023-12-25  05:46:34
Commandline: apt install mx-docs mx-snapshot mx-live-usb-maker mx-packageinstaller formatusb synaptic
Install: libxapian30:amd64 (1.4.22-1, automatic), aptitude:amd64 (0.8.13-5, automatic), libboost-iostreams1.74.0:amd64 (1.74.0+ds1-21, automatic), synaptic:amd64 (0.91.3), mx-docs:amd64 (20230728+1), libcwidget4:amd64 (0.5.18-6, automatic), aptitude-common:amd64 (0.8.13-5, automatic), libvte-2.91-common:amd64 (0.70.6-2~deb12u1, automatic), libqt5xml5:amd64 (5.15.8+dfsg-11, automatic), mx-live-usb-maker:amd64 (23.11.01), mx-packageinstaller-pkglist:amd64 (23.12.7mx23, automatic), libept1.6.0:amd64 (1.2.1, automatic), mx-snapshot:amd64 (23.12.02), pkexec:amd64 (122-3, automatic), mx-packageinstaller:amd64 (23.12.03), socat:amd64 (1.7.4.4-2, automatic), libvte-2.91-0:amd64 (0.70.6-2~deb12u1, automatic), formatusb:amd64 (23.12.01)
End-Date: 2023-12-25  05:46:47

Start-Date: 2023-12-25  05:49:50
Commandline: apt install eog evince gnome-screenshot gnome-terminal
Install: libsynctex2:amd64 (2022.20220321.62855-5.1+deb12u1, automatic), libpaper1:amd64 (1.1.29, automatic), evince:amd64 (43.1-2+b1), libjbig2dec0:amd64 (0.19-3, automatic), libidn12:amd64 (1.41-1, automatic), webp-pixbuf-loader:amd64 (0.2.1-1, automatic), eog:amd64 (43.2-1), libdjvulibre-text:amd64 (3.5.28-2, automatic), libgspell-1-common:amd64 (1.12.0-1, automatic), libkpathsea6:amd64 (2022.20220321.62855-5.1+deb12u1, automatic), libijs-0.35:amd64 (0.35-15, automatic), libgs10-common:amd64 (10.0.0~dfsg-11+deb12u3, automatic), libgs10:amd64 (10.0.0~dfsg-11+deb12u3, automatic), libevdocument3-4:amd64 (43.1-2+b1, automatic), librsvg2-common:amd64 (2.54.7+dfsg-1~deb12u1, automatic), libgspell-1-2:amd64 (1.12.0-1+b2, automatic), poppler-data:amd64 (0.4.12-1, automatic), libevview3-3:amd64 (43.1-2+b1, automatic), evince-common:amd64 (43.1-2, automatic), fonts-urw-base35:amd64 (20200910-7, automatic), gir1.2-peas-1.0:amd64 (1.34.0-1+b1, automatic), libdjvulibre21:amd64 (3.5.28-2+b1, automatic), gnome-screenshot:amd64 (41.0-2), libgxps2:amd64 (0.3.2-2+b1, automatic), gnome-terminal-data:amd64 (3.46.8-1, automatic), gnome-terminal:amd64 (3.46.8-1), libgs-common:amd64 (10.0.0~dfsg-11+deb12u3, automatic), libspectre1:amd64 (0.2.12-1, automatic)
End-Date: 2023-12-25  05:49:56

Start-Date: 2023-12-25  05:50:39
Commandline: apt install cups cups-pdf
Install: cups-filters:amd64 (1.28.17-3, automatic), cups-common:amd64 (2.4.2-3+deb12u5, automatic), cups-client:amd64 (2.4.2-3+deb12u5, automatic), cups-ppdc:amd64 (2.4.2-3+deb12u5, automatic), cups-daemon:amd64 (2.4.2-3+deb12u5, automatic), libfontembed1:amd64 (1.28.17-3, automatic), libqpdf29:amd64 (11.3.0-1+deb12u1, automatic), libpoppler-cpp0v5:amd64 (22.12.0-2+b1, automatic), cups-filters-core-drivers:amd64 (1.28.17-3, automatic), poppler-utils:amd64 (22.12.0-2+b1, automatic), cups-ipp-utils:amd64 (2.4.2-3+deb12u5, automatic), ghostscript:amd64 (10.0.0~dfsg-11+deb12u3, automatic), printer-driver-cups-pdf:amd64 (3.0.1-14), libpaper-utils:amd64 (1.1.29, automatic), cups-core-drivers:amd64 (2.4.2-3+deb12u5, automatic), cups:amd64 (2.4.2-3+deb12u5), cups-server-common:amd64 (2.4.2-3+deb12u5, automatic), libcupsfilters1:amd64 (1.28.17-3, automatic)
End-Date: 2023-12-25  05:50:45

Start-Date: 2023-12-25  05:51:06
Commandline: apt install system-config-printer
Install: gir1.2-packagekitglib-1.0:amd64 (1.2.6-5, automatic), system-config-printer-common:amd64 (1.5.18-1, automatic), python3-cairo:amd64 (1.20.1-5+b1, automatic), gir1.2-polkit-1.0:amd64 (122-3, automatic), libpackagekit-glib2-18:amd64 (1.2.6-5, automatic), system-config-printer:amd64 (1.5.18-1), python3-cups:amd64 (2.0.1-5+b4, automatic), python3-dbus:amd64 (1.3.2-4+b1, automatic), python3-cupshelpers:amd64 (1.5.18-1, automatic)
End-Date: 2023-12-25  05:51:09

Start-Date: 2023-12-25  05:51:30
Commandline: apt install audacious gnome-sound-recorder vlc vlc-l10n
Install: vlc-plugin-qt:amd64 (3.0.20-0+deb12u1, automatic), libneon27-gnutls:amd64 (0.32.5-1, automatic), gir1.2-adw-1:amd64 (1.2.2-1, automatic), libvlc5:amd64 (3.0.20-0+deb12u1, automatic), liblirc-client0:amd64 (0.10.1-7.2, automatic), libmtp-common:amd64 (1.1.20-1, automatic), libsdl-image1.2:amd64 (1.2.12-13+b2, automatic), gnome-sound-recorder:amd64 (43~beta-1), vlc-data:amd64 (3.0.20-0+deb12u1, automatic), libgtk-4-common:amd64 (4.8.3+ds-2+deb12u1, automatic), gjs:amd64 (1.74.2-1+deb12u1, automatic), libgjs0g:amd64 (1.74.2-1+deb12u1, automatic), libmatroska7:amd64 (1.7.1-1, automatic), gir1.2-gstreamer-1.0:amd64 (1.22.0-2, automatic), libpgm-5.3-0:amd64 (5.3.128~dfsg-2, automatic), libvlccore9:amd64 (3.0.20-0+deb12u1, automatic), vlc:amd64 (3.0.20-0+deb12u1), audacious:amd64 (4.3.1-1~mx23+1), libmbedcrypto7:amd64 (2.28.3-1, automatic), libcdio-cdda2:amd64 (10.2+2.0.1-1, automatic), vlc-bin:amd64 (3.0.20-0+deb12u1, automatic), libresid-builder0c2a:amd64 (2.1.1-15+b1, automatic), libopenmpt-modplug1:amd64 (0.8.9.0-openmpt1-2+b1, automatic), libopusfile0:amd64 (0.12-4, automatic), audacious-plugins:amd64 (4.3.1-1~mx23+1, automatic), libqt5x11extras5:amd64 (5.15.8-2, automatic), libnorm1:amd64 (1.5.9+dfsg-2, automatic), vlc-l10n:amd64 (3.0.20-0+deb12u1), liblua5.2-0:amd64 (5.2.4-3, automatic), libcdio19:amd64 (2.1.0-4, automatic), libspatialaudio0:amd64 (0.3.0+git20180730+dfsg1-2+b1, automatic), audacious-plugins-data:amd64 (4.3.1-1~mx23+1, automatic), libmad0:amd64 (0.15.1b-10.1+b1, automatic), libsidplay2:amd64 (2.1.1-15+b1, automatic), librist4:amd64 (0.2.7+dfsg-1, automatic), libcjson1:amd64 (1.7.15-1, automatic), libssh-gcrypt-4:amd64 (0.10.5-2, automatic), libdvbpsi10:amd64 (1.3.3-1, automatic), libprotobuf-lite32:amd64 (3.21.12-3, automatic), libmms0:amd64 (0.6.4-3, automatic), gir1.2-gtk-4.0:amd64 (4.8.3+ds-2+deb12u1, automatic), gir1.2-gst-plugins-base-1.0:amd64 (1.22.0-3+deb12u1, automatic), libmtp9:amd64 (1.1.20-1, automatic), libpostproc56:amd64 (7:5.1.4-0+deb12u1, automatic), libcairo-script-interpreter2:amd64 (1.16.0-7, automatic), libupnp13:amd64 (1:1.8.4-2, automatic), gir1.2-graphene-1.0:amd64 (1.10.8-1, automatic), libsodium23:amd64 (1.0.18-1, automatic), libqt5multimedia5:amd64 (5.15.8-2, automatic), libcloudproviders0:amd64 (0.3.1-2, automatic), libebml5:amd64 (1.4.4-1, automatic), libcue2:amd64 (2.2.1-4+deb12u1, automatic), libnfs13:amd64 (4.0.0-1, automatic), libaudgui5:amd64 (4.3.1-1~mx23+1, automatic), libswscale6:amd64 (7:5.1.4-0+deb12u1, automatic), libmozjs-102-0:amd64 (102.15.1-1~deb12u1, automatic), libmpeg2-4:amd64 (0.5.1-9, automatic), libqt5svg5:amd64 (5.15.8-3, automatic), libplacebo208:amd64 (4.208.0-3, automatic), gir1.2-gst-plugins-bad-1.0:amd64 (1.22.0-4+deb12u4, automatic), libzmq5:amd64 (4.3.4-6, automatic), libgtk-4-1:amd64 (4.8.3+ds-2+deb12u1, automatic), libadwaita-1-0:amd64 (1.2.2-1, automatic), librabbitmq4:amd64 (0.11.0-1+b1, automatic), libva-wayland2:amd64 (2.17.0-1, automatic), vlc-plugin-video-output:amd64 (3.0.20-0+deb12u1, automatic), libsdl1.2debian:amd64 (1.2.15+dfsg2-8, automatic), liba52-0.7.4:amd64 (0.7.4-20, automatic), unzip:amd64 (6.0-28, automatic), libaudcore5:amd64 (4.3.1-1~mx23+1, automatic), libcddb2:amd64 (1.3.2-7, automatic), libaudqt2:amd64 (4.3.1-1~mx23+1, automatic), libavformat59:amd64 (7:5.1.4-0+deb12u1, automatic), libaribb24-0:amd64 (1.0.3-2, automatic), libaudtag3:amd64 (4.3.1-1~mx23+1, automatic), libixml10:amd64 (1:1.8.4-2, automatic), libsidplayfp6:amd64 (2.4.2-1, automatic), libvlc-bin:amd64 (3.0.20-0+deb12u1, automatic), vlc-plugin-base:amd64 (3.0.20-0+deb12u1, automatic), libxcb-xv0:amd64 (1.15-1, automatic)
End-Date: 2023-12-25  05:51:40

Start-Date: 2023-12-25  05:53:09
Commandline: apt install quick-system-info-gui
Install: mx-goodies:amd64 (23.11.03, automatic), xclip:amd64 (0.13-2, automatic), quick-system-info-gui:amd64 (23.12.01)
End-Date: 2023-12-25  05:53:10

Start-Date: 2023-12-25  05:53:37
Commandline: apt install uim-anthy uim im-config zenity kasumi uim-gtk2.0 uim-gtk3 uim-qt5 uim-xim uim-fep fonts-vlgothic
Install: libm17n-0:amd64 (1.8.0-6, automatic), libgcroots0:amd64 (0.9.1-2, automatic), uim-gtk2.0:amd64 (1:1.8.8-9.2+b2), anthy:amd64 (1:0.4-2, automatic), uim-gtk3:amd64 (1:1.8.8-9.2+b2), uim:amd64 (1:1.8.8-9.2+b2), uim-gtk2.0-immodule:amd64 (1:1.8.8-9.2+b2, automatic), libanthyinput0:amd64 (1:0.4-2, automatic), libuim-scm0:amd64 (1:1.8.8-9.2+b2, automatic), uim-gtk3-immodule:amd64 (1:1.8.8-9.2+b2, automatic), libgtk2.0-common:amd64 (2.24.33-2, automatic), im-config:amd64 (0.55-2), uim-qt5-immodule:amd64 (1:1.8.8-9.2+b2, automatic), libgtk2.0-0:amd64 (2.24.33-2, automatic), libanthy1:amd64 (1:0.4-2, automatic), uim-data:amd64 (1:1.8.8-9.2, automatic), uim-anthy:amd64 (1:1.8.8-9.2), libuim-data:amd64 (1:1.8.8-9.2, automatic), libuim-custom2:amd64 (1:1.8.8-9.2+b2, automatic), anthy-common:amd64 (1:0.4-2, automatic), fonts-vlgothic:amd64 (20220612-1), m17n-db:amd64 (1.8.0-5, automatic), kasumi:amd64 (2.5-11), uim-plugins:amd64 (1:1.8.8-9.2+b2, automatic), libotf1:amd64 (0.9.16-4, automatic), libuim8:amd64 (1:1.8.8-9.2+b2, automatic), uim-fep:amd64 (1:1.8.8-9.2+b2), uim-qt5:amd64 (1:1.8.8-9.2+b2), uim-xim:amd64 (1:1.8.8-9.2+b2)
End-Date: 2023-12-25  05:53:42

Start-Date: 2023-12-25  05:53:50
Commandline: apt install uim-chewing uim-pinyin fonts-wqy-microhei
Install: libchewing3-data:amd64 (0.5.1-5, automatic), uim-pinyin:amd64 (1:1.8.8-9.2), uim-chewing:amd64 (0.1.0-7), fonts-wqy-microhei:amd64 (0.2.0-beta-3.1), libchewing3:amd64 (0.5.1-5, automatic)
End-Date: 2023-12-25  05:53:51

Start-Date: 2023-12-25  05:53:59
Commandline: apt install sylpheed sylpheed-i18n aspell-en
Install: libonig5:amd64 (6.9.8-1, automatic), sylpheed:amd64 (3.8.0~beta1-1), gpg:amd64 (2.2.40-1.1, automatic), pinentry-gtk2:amd64 (1.2.1-1, automatic), sylpheed-i18n:amd64 (3.8.0~beta1-1), gnupg:amd64 (2.2.40-1.1, automatic), gpg-wks-server:amd64 (2.2.40-1.1, automatic), libgpgme11:amd64 (1.18.0-3+b1, automatic), gpg-agent:amd64 (2.2.40-1.1, automatic), libassuan0:amd64 (2.5.5-5, automatic), libnpth0:amd64 (1.6-3, automatic), libgtkspell0:amd64 (2.0.16-1.3, automatic), pinentry-curses:amd64 (1.2.1-1, automatic), gpgsm:amd64 (2.2.40-1.1, automatic), libcompfaceg1:amd64 (1:1.5.2-5.1, automatic), dirmngr:amd64 (2.2.40-1.1, automatic), libksba8:amd64 (1.6.3-2, automatic), gnupg-utils:amd64 (2.2.40-1.1, automatic), aspell-en:amd64 (2020.12.07-0-1), gnupg-l10n:amd64 (2.2.40-1.1, automatic), gpg-wks-client:amd64 (2.2.40-1.1, automatic), gpgconf:amd64 (2.2.40-1.1, automatic), aspell:amd64 (0.60.8-4+b1, automatic)
End-Date: 2023-12-25  05:54:05

Start-Date: 2023-12-25  05:56:56
Commandline: apt install geany geany-plugin-spellcheck
Install: geany-common:amd64 (1.38-1, automatic), geany-plugin-spellcheck:amd64 (1.38+dfsg-2), geany-plugins-common:amd64 (1.38+dfsg-2, automatic), geany:amd64 (1.38-1+b1)
End-Date: 2023-12-25  05:56:58

Start-Date: 2023-12-25  05:57:06
Commandline: apt install libgdk-pixbuf2.0-bin
Install: libgdk-pixbuf2.0-bin:amd64 (2.42.10+dfsg-1+b1)
End-Date: 2023-12-25  05:57:07

Start-Date: 2023-12-25  05:57:28
Commandline: apt autoremove
Remove: libnsl-dev:amd64 (1.3.0-2), rpcsvc-proto:amd64 (1.4.3-1), libcrypt-dev:amd64 (1:4.4.33-2), libc-dev-bin:amd64 (2.36-9+deb12u3), libtirpc-dev:amd64 (1.3.3+ds-1)
End-Date: 2023-12-25  05:57:29

Start-Date: 2023-12-25  06:01:45
Commandline: apt install firefox-esr firefox-esr-l10n-de firefox-esr-l10n-es-es firefox-esr-l10n-el firefox-esr-l10n-fr firefox-esr-l10n-hi-in firefox-esr-l10n-hr firefox-esr-l10n-hu firefox-esr-l10n-id firefox-esr-l10n-it firefox-esr-l10n-ja firefox-esr-l10n-nl firefox-esr-l10n-pl firefox-esr-l10n-pt-br firefox-esr-l10n-ru firefox-esr-l10n-sv-se firefox-esr-l10n-zh-tw
Install: firefox-esr-l10n-sv-se:amd64 (115.6.0esr-1~deb12u1), firefox-esr-l10n-es-es:amd64 (115.6.0esr-1~deb12u1), firefox-esr-l10n-hi-in:amd64 (115.6.0esr-1~deb12u1), firefox-esr-l10n-de:amd64 (115.6.0esr-1~deb12u1), firefox-esr-l10n-el:amd64 (115.6.0esr-1~deb12u1), firefox-esr-l10n-fr:amd64 (115.6.0esr-1~deb12u1), libevent-2.1-7:amd64 (2.1.12-stable-8, automatic), firefox-esr-l10n-hr:amd64 (115.6.0esr-1~deb12u1), firefox-esr-l10n-hu:amd64 (115.6.0esr-1~deb12u1), firefox-esr-l10n-id:amd64 (115.6.0esr-1~deb12u1), firefox-esr-l10n-it:amd64 (115.6.0esr-1~deb12u1), firefox-esr-l10n-ja:amd64 (115.6.0esr-1~deb12u1), firefox-esr-l10n-nl:amd64 (115.6.0esr-1~deb12u1), firefox-esr-l10n-pl:amd64 (115.6.0esr-1~deb12u1), firefox-esr-l10n-ru:amd64 (115.6.0esr-1~deb12u1), firefox-esr-l10n-pt-br:amd64 (115.6.0esr-1~deb12u1), firefox-esr-l10n-zh-tw:amd64 (115.6.0esr-1~deb12u1), firefox-esr:amd64 (115.6.0esr-1~deb12u1)
End-Date: 2023-12-25  06:01:52

Start-Date: 2023-12-25  06:08:11
Commandline: apt-get install -y mx-installer
Requested-By: demo (1000)
Install: flags-common:amd64 (23.07.02, automatic), dosfstools:amd64 (4.2-1, automatic), gazelle-installer-data-mx:amd64 (23.08mx23, automatic), libzxcvbn0:amd64 (2.5+dfsg-1, automatic), mx-installer:amd64 (23.12.02mx23), system-keyboard-qt:amd64 (23.12.02mx23, automatic)
End-Date: 2023-12-25  06:08:12
