
Start-Date: 2023-12-25  17:21:14
Commandline: apt install lightdm lightdm-gtk-greeter
Install: lightdm-gtk-greeter:amd64 (2.0.8-2+b1), lightdm:amd64 (1.26.0-8), liblightdm-gobject-1-0:amd64 (1.26.0-8, automatic)
End-Date: 2023-12-25  17:21:19

Start-Date: 2023-12-25  17:24:45
Commandline: apt install pulseaudio
Install: libpulsedsp:amd64 (16.1+dfsg1-2+b1, automatic), pulseaudio:amd64 (16.1+dfsg1-2+b1), pulseaudio-utils:amd64 (16.1+dfsg1-2+b1, automatic), libasound2-plugins:amd64 (1.2.7.1-1, automatic)
Remove: pipewire-audio:amd64 (1.0.0-1~mx23+1), pipewire-alsa:amd64 (1.0.0-1~mx23+1)
End-Date: 2023-12-25  17:24:48

Start-Date: 2023-12-25  17:26:50
Commandline: /usr/sbin/synaptic
Requested-By: demo (1000)
Remove: linux-headers-6.1.0-10-amd64:amd64 (6.1.38-2), linux-image-6.1.0-10-amd64:amd64 (6.1.38-2), linux-headers-6.1.0-10-common:amd64 (6.1.38-2)
End-Date: 2023-12-25  17:26:53

Start-Date: 2023-12-26  01:15:40
Commandline: apt remove connman cmst
Remove: connman:amd64 (1.41-3), cmst:amd64 (2022.11.30-1)
End-Date: 2023-12-26  01:15:42
